{
    "name": "Valhalla.KeyAssets.Editor",
    "rootNamespace": "Valhalla.Serialization.Editor",
    "references": [
        "Valhalla.KeyAssets",
        "UnityEditor.TestRunner",
        "UnityEngine.TestRunner"
    ],
    "includePlatforms": [
        "Editor"
    ],
    "excludePlatforms": [],
    "allowUnsafeCode": false,
    "overrideReferences": false,
    "precompiledReferences": [],
    "autoReferenced": true,
    "defineConstraints": [],
    "versionDefines": [],
    "noEngineReferences": false
}